module gitlab.com/mmorgenstern/pggis

go 1.16

require (
	github.com/gin-gonic/gin v1.7.2
	github.com/jackc/pgproto3/v2 v2.1.0 // indirect
	gitlab.com/mmorgenstern/pg_plugin_interface v1.0.4
	golang.org/x/crypto v0.0.0-20210616213533-5ff15b29337e // indirect
	golang.org/x/text v0.3.6 // indirect
	gorm.io/driver/postgres v1.1.0 // indirect
	gorm.io/gorm v1.21.11 // indirect
)
